R Markdown: An Incomplete History
…
---

```r
plastics_grand_summary
```

```
## # A tibble: 107 x 5
##    country                      year num_events volunteers grand_total
##    <chr>                       <dbl>      <dbl>      <dbl>       <dbl>
##  1 Taiwan_ Republic of China …  2019          2      31318      241292
##  2 NIGERIA                      2019         14       1648      161140
##  3 EMPTY                        2019        145       1416      113910
##  4 Philippines                  2019         20       3751       74032
##  5 Indonesia                    2019         32       6850       26618
##  6 ECUADOR                      2019          1        455       25430
##  7 Vietnam                      2019          4        400       21774
##  8 Kenya                        2019          5       1560       18988
##  9 Cameroon                     2019         10        387       17190
## 10 Switzerland                  2019          6        327       15002
## # … with 97 more rows
```
…
